{
  "Demo": [
    {
      "url": "/category/list",
      "desc": "获取分类列表成功",
      "mock":true,
      "res": {
        "code": 200,
        "msg": "获取分类列表成功",
        "data|1-10": [{
          "categoryCode": "@increment",
          "categoryName": "@cword(2,2)"
        }]
      }
    },
    {
      "url": "/source/topLevelList",
      "desc": "获取一级元类型",
      "mock":true,
      "res": {
        "code": 200,
        "msg": "获取一级元类型表成功",
        "data": [{
          "sourceCode": "100",
          "sourceName": "门户"
        },{
          "sourceCode": "101",
          "sourceName": "社区"
        },{
          "sourceCode": "102",
          "sourceName": "自创"
        }]
      }
    },
    {
      "url": "/source/query",
      "desc": "获取二级内容源列表",
      "mock":true,
      "res": {
        "code": 200,
        "msg": "获取二级内容源列表成功",
        "data": [{
          "sourceId": "100",
          "sourceName": "sina"
        },{
          "sourceId": "101",
          "sourceName": "QQ"
        },{
          "sourceId": "103",
          "sourceName": "weibo"
        }]
      }
    },
    {
      "url": "/content/list",
      "desc": "搜索结果",
      "mock":true,
      "delay": 1000,
      "res": {
        "code": "@pick([200, 500])",
        "msg": "There is a 50% chance of failure, pls try again",
        "data": {
          "pageNo":1,
          "pageSize":20,
          "totalPage":8,
          "totalCount":158,
          "items|6":[{
            "id|+1":100,
            "title":"@cparagraph(1)",
            "sourceDesc":"@cparagraph(1)",
            "originalReleaseTimestamp":"@datetime",
            "browseNum":"@integer(10,3000)",
            "status|1":[0,1],
            "type|1":[1,2,3],
            "recommendFlag|1":[1,0],
            "topFlag|1":[0,1]
          }]

            }
      }
    },
    {
      "url": "/chartData",
      "desc": "获取表格数据",
      "mock":true,
      "res": {
        "code": 200,
        "msg": "Get data success",
        "data": {
          "xAxis": {
            "data|20": ["@city()"]
          },
          "yAxis": {},
          "series": [
            {
              "name": "销量1",
              "data|20": ["@integer(1, 100)"]
            },
            {
              "name": "销量2",
              "data|20": ["@integer(1, 100)"]
            }
          ]
        }
      }
    },
    {
      "url": "/",
      "desc": "Index",
      "mock":true,
      "res": {
        "code": 200,
        "msg": "Hi, this is mock server.",
        "data": ""
      }
    }
  ]
}
